21,slip,slipped in the bathroom,2018-06-01,-27.475870,153.028076,A101,1
22,slip,slipped,2018-06-09,-27.476185,153.028442,B117,1
23,slip,slipped,2018-06-25,-27.478271,153.027893,C306,3
24,slip,slipped,2018-06-26,-27.476070,153.027725,D206,2
25,slip,slipped over again cause of leaking cieling,2018-06-27,-27.476070,153.027725,D202,2
26,trip,tripped over derek,2018-06-28,-27.476070,153.027725,D203,2
27,slip,slipped,2018-06-29,-27.477749,153.028183,O306,3
28,trip,tripped over my shoelace,2018-06-30,-27.478010,153.028931,P401,4
29,slip,slipped over,2018-07-01,-27.478010,153.028931,P701,7
30,slip,slipped,2018-07-02,-27.478010,153.028931,P601,6
31,slip,slipped near the water bubbler, there was a wet floor sign,2018-07-05,-27.478010,153.028931,P301,3
32,trip,tripped over a table I wasn't looking at,2018-07-06,-27.478010,153.028931,P520,5
33,slip,slid down the staircase handlebar and then slipped on a puddle at the bottom,2018-07-07,-27.478010,153.028931,P502,5
34,slip,slipped (was wearing rollerblades),2018-07-08,-27.476460,153.027147,J306,3
35,slip,slipped down stairs cause of slippery shoes,2018-07-15,-27.476460,153.027147,J306,3
36,trip,tripped over a chair in s502,2018-07-17,-27.477308,153.027176,S502,5
37,trip,tripped on the door into pblock foundry,2018-07-18,-27.477308,153.027176,J306,3
38,trip,tripped over a plugged in laptop,2018-07-19,-27.477308,153.027176,S503,5
39,trip,tripped on laptop charging cable,2018-07-20,-27.477739,153.027634,Z403,4
40,trip,tripped on the garbage falling out of the bin,2018-07-22,-27.477739,153.027634,Z403,4
